{
    "items": [
      {
        "id": 1,
        "category": "c1",
        "title": "C++",
        "body": "C++C++C++",
        "created": "2019-11-16T04:30:37.856483",
        "updated": null
      },
      {
        "id": 2,
        "category": "c1",
        "title": "C#",
        "body": "C#C#C#",
        "created": "2019-11-16T04:30:37.856483",
        "updated": null
      },
      {
        "id": 3,
        "category": "c1",
        "title": "C",
        "body": "CCC",
        "created": "2019-11-16T04:30:37.856483",
        "updated": null
      },
      {
        "id": 4,
        "category": "c1",
        "title": "Python",
        "body": "PythonPythonPython",
        "created": "2019-11-16T04:30:37.856483",
        "updated": null
      },
      {
        "id": 5,
        "category": "c1",
        "title": "Java",
        "body": "JavaJavaJava",
        "created": "2019-11-16T04:30:37.856483",
        "updated": null
      },
      {
        "id": 6,
        "category": "c2",
        "title": "go",
        "body": "gogogo",
        "created": "2019-11-16T04:30:37.856483",
        "updated": null
      },
      {
        "id": 7,
        "category": "c2",
        "title": "ruby",
        "body": "rubyrubyruby",
        "created": "2019-11-16T04:30:37.856483",
        "updated": null
      },
      {
        "id": 8,
        "category": "c2",
        "title": "shell",
        "body": "shellshellshell",
        "created": "2019-11-16T04:30:37.856483",
        "updated": null
      },
      {
        "id": 9,
        "category": "c2",
        "title": "JavaScript",
        "body": "JavaScriptJavaScriptJavaScript",
        "created": "2019-11-16T04:30:37.856483",
        "updated": null
      },
      {
        "id": 10,
        "category": "c2",
        "title": "html5",
        "body": "html5html5html5",
        "created": "2019-11-16T04:30:37.856483",
        "updated": null
      }
    ],
    "page": 1,
    "pages": 3,
    "per_page": 10,
    "total": 25
  }